^C:\USERS\GVOZDEV\DESKTOP\CPPPORTMANUALNOOOP\DEBUG\CPPPORTMANUALNOOOP.OBJ
C:\USERS\GVOZDEV\DESKTOP\CPPPORTMANUALNOOOP\DEBUG\CPPPORTMANUALNOOOP.EXE
C:\USERS\GVOZDEV\DESKTOP\CPPPORTMANUALNOOOP\DEBUG\CPPPORTMANUALNOOOP.ILK
C:\USERS\GVOZDEV\DESKTOP\CPPPORTMANUALNOOOP\DEBUG\CPPPORTMANUALNOOOP.PDB
