^C:\USERS\GVOZDEV\DESKTOP\CPPPORTMANUAL\CPPPORTMANUAL.CPP
C:\USERS\GVOZDEV\DESKTOP\CPPPORTMANUAL\DEBUG\VC142.PDB
C:\USERS\GVOZDEV\DESKTOP\CPPPORTMANUAL\DEBUG\VC142.IDB
C:\USERS\GVOZDEV\DESKTOP\CPPPORTMANUAL\DEBUG\CPPPORTMANUAL.OBJ
