^C:\USERS\GVOZDEV\DESKTOP\CPPPORTMANUAL\DEBUG\CPPPORTMANUAL.OBJ
C:\USERS\GVOZDEV\DESKTOP\CPPPORTMANUAL\DEBUG\CPPPORTMANUAL.EXE
C:\USERS\GVOZDEV\DESKTOP\CPPPORTMANUAL\DEBUG\CPPPORTMANUAL.ILK
C:\USERS\GVOZDEV\DESKTOP\CPPPORTMANUAL\DEBUG\CPPPORTMANUAL.PDB
